[
  {
    "result": {
      "outcome": "warning",
      "threshold": "0.1",
      "rulename": "Percentage",
      "result": "fail",
      "actual": "1.0991125406809885"
    },
    "index": 1
  },
  {
    "result": {
      "outcome": "warning",
      "rulename": "Percentage",
      "result": "fail",
      "actual": "0.10563847618332506",
      "threshold": "0.1"
    },
    "index": 1
  },
  {
    "index": 1,
    "result": {
      "rulename": "Percentage",
      "actual": "1.0991125406809885",
      "result": "pass",
      "threshold": 5,
      "outcome": "failure"
    }
  },
  {
    "index": 1,
    "result": {
      "outcome": "failure",
      "threshold": 5,
      "actual": "0.10563847618332506",
      "result": "pass",
      "rulename": "Percentage"
    }
  }
]
