8e8f3e3c-c512-41b4-8ce4-69da096f3d8c	family1	child
aef225e7-2eb2-4c78-abe3-7023008ca37a	family1	mother
4edec4dd-8873-4cc7-abd7-88450bbf8111	family1	father
29246fb6-f34c-4112-a89f-c13837079291	family2	child
722a1e49-07fa-4c75-8285-3b5cca54e193	family2	mother