FCID,Lane,SampleID,SampleRef,Index,Description,Control,Recipe,Operator,SampleProject
C6FG8ANXX,C6FG8ANXX,C6FG8ANXX,hg19,N-AP,C6FG8ANXX,N,PE_indexing,AP,WgsTestRun1
C6FG8ANXX,C6FG8ANXX,C6FG8ANXX,hg19,N-AP,C6FG8ANXX,N,PE_indexing,AP,WgsTestRun1
C6FG8ANXX,C6FG8ANXX,C6FG8ANXX,hg19,N-AP,C6FG8ANXX,N,PE_indexing,AP,WgsTestRun1
C6FG8ANXX,C6FG8ANXX,C6FG8ANXX,hg19,N-AP,C6FG8ANXX,N,PE_indexing,AP,WgsTestRun1
C6FG8ANXX,C6FG8ANXX,C6FG8ANXX,hg19,N-AP,C6FG8ANXX,N,PE_indexing,AP,WgsTestRun1
