[
  {
    "index": 0,
    "result": {
      "result": "pass",
      "actual": "9.541481566235685",
      "rulename": "Relative count",
      "outcome": "warning",
      "threshold": 20
    }
  },
  {
    "result": {
      "outcome": "failure",
      "threshold": 50,
      "actual": "9.541481566235685",
      "rulename": "Relative count",
      "result": "pass"
    },
    "index": 0
  }
]
